Filtering joins match observations in the same way as mutating joins, but affect the observations, not the variables. There are two types:

* `semi_join(x, y)` __keeps__ all observations in `x` that have a match in `y`.
* `anti_join(x, y)` __drops__ all observations in `x` that have a match in `y`.

Semi-joins are useful for matching filtered summary tables back to the original rows. For example, imagine you've found the top ten most popular destinations:


```r
top_dest <- flights %>%
  count(dest, sort = TRUE) %>%
  head(10)
top_dest
#> # A tibble: 10 x 2
#>   dest      n
#>   <chr> <int>
#> 1 ORD   17283
#> 2 ATL   17215
#> 3 LAX   16174
#> 4 BOS   15508
#> 5 MCO   14082
#> 6 CLT   14064
#> # ... with 4 more rows
```
…
**Figure 16.3**

Anti-joins are useful for diagnosing join mismatches. For example, when connecting `flights` and `planes`, you might be interested to know that there are many `flights` that don't have a match in `planes`:


```r
flights %>%
  anti_join(planes, by = "tailnum") %>%
  count(tailnum, sort = TRUE)
#> # A tibble: 722 x 2
#>   tailnum     n
#>   <chr>   <int>
#> 1 <NA>     2512
#> 2 N725MQ    575
#> 3 N722MQ    513
#> 4 N723MQ    507
#> 5 N713MQ    483
#> 6 N735MQ    396
#> # ... with 716 more rows
```
…
