…
```r
rmarkdown::render("fuel-economy.Rmd", params = list(my_class = "suv"))
```

This is particularly powerful in conjunction with `purrr:pwalk()`. The following example creates a report for each value of `class` found in `mpg`. First we create a data frame that has one row for each class, giving the `filename` of the report and the `params`:


```r
reports <- tibble(
  class = unique(mpg$class),
  filename = stringr::str_c("fuel-economy-", class, ".html"),
  params = purrr::map(class, ~ list(my_class = .))
)
reports
#> # A tibble: 7 x 3
#>   class   filename                  params    
#>   <chr>   <chr>                     <list>    
#> 1 compact fuel-economy-compact.html <list [1]>
#> 2 midsize fuel-economy-midsize.html <list [1]>
#> 3 suv     fuel-economy-suv.html     <list [1]>
#> 4 2seater fuel-economy-2seater.html <list [1]>
#> 5 minivan fuel-economy-minivan.html <list [1]>
#> 6 pickup  fuel-economy-pickup.html  <list [1]>
#> # ... with 1 more row
```
…
