…
### Printing

Tibbles have a refined print method that shows only the first 10 rows, and all the columns that fit on screen. This makes it much easier to work with large data. In addition to its name, each column reports its type, a nice feature borrowed from `str()`:


```r
tibble(
  a = lubridate::now() + runif(1e3) * 86400,
  b = lubridate::today() + runif(1e3) * 30,
  c = 1:1e3,
  d = runif(1e3),
  e = sample(letters, 1e3, replace = TRUE)
)
#> # A tibble: 1,000 x 5
#>   a                   b              c     d e    
#>   <dttm>              <date>     <int> <dbl> <chr>
#> 1 2019-04-10 15:58:30 2019-04-17     1 0.368 h    
#> 2 2019-04-11 10:03:39 2019-04-22     2 0.612 n    
#> 3 2019-04-11 04:27:19 2019-05-02     3 0.415 l    
#> 4 2019-04-10 17:48:36 2019-05-01     4 0.212 x    
#> 5 2019-04-10 14:12:52 2019-04-28     5 0.733 a    
#> 6 2019-04-11 01:13:49 2019-04-24     6 0.460 v    
#> # ... with 994 more rows
```
…
