To finish off the chapter, let's pull together everything you've learned to tackle a realistic data tidying problem. The `tidyr::who` dataset contains tuberculosis (TB) cases broken down by year, country, age, gender, and diagnosis method. The data comes from the *2014 World Health Organization Global Tuberculosis Report*, available at <http://www.who.int/tb/country/data/download/en/>.

There's a wealth of epidemiological information in this dataset, but it's challenging to work with the data in the form that it's provided:


```r
who
#> # A tibble: 7,240 x 60
#>   country iso2  iso3   year new_sp_m014 new_sp_m1524 new_sp_m2534
#>   <chr>   <chr> <chr> <int>       <int>        <int>        <int>
#> 1 Afghan~ AF    AFG    1980          NA           NA           NA
#> 2 Afghan~ AF    AFG    1981          NA           NA           NA
#> 3 Afghan~ AF    AFG    1982          NA           NA           NA
#> 4 Afghan~ AF    AFG    1983          NA           NA           NA
#> 5 Afghan~ AF    AFG    1984          NA           NA           NA
#> 6 Afghan~ AF    AFG    1985          NA           NA           NA
#> # ... with 7,234 more rows, and 53 more variables: new_sp_m3544 <int>,
#> #   new_sp_m4554 <int>, new_sp_m5564 <int>, new_sp_m65 <int>,
#> #   new_sp_f014 <int>, new_sp_f1524 <int>, new_sp_f2534 <int>,
#> #   new_sp_f3544 <int>, new_sp_f4554 <int>, new_sp_f5564 <int>,
#> #   new_sp_f65 <int>, new_sn_m014 <int>, new_sn_m1524 <int>,
#> #   new_sn_m2534 <int>, new_sn_m3544 <int>, new_sn_m4554 <int>,
#> #   new_sn_m5564 <int>, new_sn_m65 <int>, new_sn_f014 <int>,
#> #   new_sn_f1524 <int>, new_sn_f2534 <int>, new_sn_f3544 <int>,
#> #   new_sn_f4554 <int>, new_sn_f5564 <int>, new_sn_f65 <int>,
…
We can get some hint of the structure of the values in the new `key` column by counting them:


```r
who1 %>% 
  count(key)
#> # A tibble: 56 x 2
#>   key              n
#>   <chr>        <int>
#> 1 new_ep_f014   1032
#> 2 new_ep_f1524  1021
#> 3 new_ep_f2534  1021
#> 4 new_ep_f3544  1021
#> 5 new_ep_f4554  1017
#> 6 new_ep_f5564  1017
#> # ... with 50 more rows
```
…
