…
(Note the use of `readr_example()` which finds the path to one of the files included with the package)

There are two printed outputs: the column specification generated by looking at the first 1000 rows, and the first five parsing failures. It's always a good idea to explicitly pull out the `problems()`, so you can explore them in more depth:


```r
problems(challenge)
#> # A tibble: 1,000 x 5
#>     row col   expected       actual   file                                 
#>   <int> <chr> <chr>          <chr>    <chr>                                
#> 1  1001 y     1/0/T/F/TRUE/~ 2015-01~ '/usr/local/lib/R/3.5/site-library/r~
#> 2  1002 y     1/0/T/F/TRUE/~ 2018-05~ '/usr/local/lib/R/3.5/site-library/r~
#> 3  1003 y     1/0/T/F/TRUE/~ 2015-09~ '/usr/local/lib/R/3.5/site-library/r~
#> 4  1004 y     1/0/T/F/TRUE/~ 2012-11~ '/usr/local/lib/R/3.5/site-library/r~
#> 5  1005 y     1/0/T/F/TRUE/~ 2020-01~ '/usr/local/lib/R/3.5/site-library/r~
#> 6  1006 y     1/0/T/F/TRUE/~ 2016-04~ '/usr/local/lib/R/3.5/site-library/r~
#> # ... with 994 more rows
```
…
There are a few other general strategies to help you parse files:

*   In the previous example, we just got unlucky: if we look at just
    one more row than the default, we can correctly parse in one shot:
   
    
```r
    challenge2 <- read_csv(readr_example("challenge.csv"), guess_max = 1001)
    #> Parsed with column specification:
    #> cols(
    #>   x = col_double(),
    #>   y = col_date(format = "")
    #> )
    challenge2
    #> # A tibble: 2,000 x 2
    #>       x y         
    #>   <dbl> <date>    
    #> 1   404 NA        
    #> 2  4172 NA        
    #> 3  3004 NA        
    #> 4   787 NA        
    #> 5    37 NA        
    #> 6  2332 NA        
    #> # ... with 1,994 more rows
```
…
