…
1.  To generate predictions from both models simultaneously, we can use 
    `gather_predictions()` which adds each prediction as a row. The
    complement of `gather_predictions()` is `spread_predictions()` which adds 
    each prediction to a new column.
    
Together this gives us:


```r
grid <- sim3 %>% 
  data_grid(x1, x2) %>% 
  gather_predictions(mod1, mod2)
grid
#> # A tibble: 80 x 4
#>   model    x1 x2     pred
#>   <chr> <int> <fct> <dbl>
#> 1 mod1      1 a      1.67
#> 2 mod1      1 b      4.56
#> 3 mod1      1 c      6.48
#> 4 mod1      1 d      4.03
#> 5 mod1      2 a      1.48
#> 6 mod1      2 b      4.37
#> # ... with 74 more rows
```
…
Let's take a look at the equivalent model for two continuous variables. Initially things proceed almost identically to the previous example:


```r
mod1 <- lm(y ~ x1 + x2, data = sim4)
mod2 <- lm(y ~ x1 * x2, data = sim4)

grid <- sim4 %>% 
  data_grid(
    x1 = seq_range(x1, 5), 
    x2 = seq_range(x2, 5) 
  ) %>% 
  gather_predictions(mod1, mod2)
grid
#> # A tibble: 50 x 4
#>   model    x1    x2   pred
#>   <chr> <dbl> <dbl>  <dbl>
#> 1 mod1   -1    -1    0.996
#> 2 mod1   -1    -0.5 -0.395
#> 3 mod1   -1     0   -1.79 
#> 4 mod1   -1     0.5 -3.18 
#> 5 mod1   -1     1   -4.57 
#> 6 mod1   -0.5  -1    1.91 
#> # ... with 44 more rows
```
…
