…
Generally, when creating list-columns, you should make sure they're homogeneous: each element should contain the same type of thing. There are no checks to make sure this is true, but if you use purrr and remember what you've learned about type-stable functions, you should find it happens naturally.

### With nesting

`nest()` creates a nested data frame, which is a data frame with a list-column of data frames. In a nested data frame each row is a meta-observation: the other columns give variables that define the observation (like country and continent above), and the list-column of data frames gives the individual observations that make up the meta-observation.

There are two ways to use `nest()`. So far you've seen how to use it with a grouped data frame. When applied to a grouped data frame, `nest()` keeps the grouping columns as is, and bundles everything else into the list-column:


```r
gapminder %>% 
  group_by(country, continent) %>% 
  nest()
#> # A tibble: 142 x 3
#>   country     continent data             
#>   <fct>       <fct>     <list>           
#> 1 Afghanistan Asia      <tibble [12 x 4]>
#> 2 Albania     Europe    <tibble [12 x 4]>
#> 3 Algeria     Africa    <tibble [12 x 4]>
#> 4 Angola      Africa    <tibble [12 x 4]>
#> 5 Argentina   Americas  <tibble [12 x 4]>
#> 6 Australia   Oceania   <tibble [12 x 4]>
#> # ... with 136 more rows
```
{Run code | terminal}(Rscript code/listCols.r)              


You can also use it on an ungrouped data frame, specifying which columns you want to nest:


```r
gapminder %>% 
  nest(year:gdpPercap)
#> # A tibble: 142 x 3
#>   country     continent data             
#>   <fct>       <fct>     <list>           
#> 1 Afghanistan Asia      <tibble [12 x 4]>
#> 2 Albania     Europe    <tibble [12 x 4]>
#> 3 Algeria     Africa    <tibble [12 x 4]>
#> 4 Angola      Africa    <tibble [12 x 4]>
#> 5 Argentina   Americas  <tibble [12 x 4]>
#> 6 Australia   Oceania   <tibble [12 x 4]>
#> # ... with 136 more rows
```
…
`unnest()` knows how to handle these lists of vectors:


```r
df %>% 
  mutate(x2 = stringr::str_split(x1, ",")) %>% 
  unnest()
#> # A tibble: 7 x 2
#>   x1      x2   
#>   <chr>   <chr>
#> 1 a,b,c   a    
#> 2 a,b,c   b    
#> 3 a,b,c   c    
#> 4 d,e,f,g d    
#> 5 d,e,f,g e    
#> 6 d,e,f,g f    
#> # ... with 1 more row
```
…
To make useful results with unnest, you'll also need to capture the probabilities:


```r
probs <- c(0.01, 0.25, 0.5, 0.75, 0.99)
mtcars %>% 
  group_by(cyl) %>% 
  summarise(p = list(probs), q = list(quantile(mpg, probs))) %>% 
  unnest()
#> # A tibble: 15 x 3
#>     cyl     p     q
#>   <dbl> <dbl> <dbl>
#> 1     4  0.01  21.4
#> 2     4  0.25  22.8
#> 3     4  0.5   26  
#> 4     4  0.75  30.4
#> 5     4  0.99  33.8
#> 6     6  0.01  17.8
#> # ... with 9 more rows
```
…
1.  Brainstorm useful summary functions that, like `quantile()`, return
    multiple values.
    
1.  What's missing in the following data frame? How does `quantile()` return
    that missing piece? Why isn't that helpful here?

    
```r
    mtcars %>% 
      group_by(cyl) %>% 
      summarise(q = list(quantile(mpg))) %>% 
      unnest()
    #> # A tibble: 15 x 2
    #>     cyl     q
    #>   <dbl> <dbl>
    #> 1     4  21.4
    #> 2     4  22.8
    #> 3     4  26  
    #> 4     4  30.4
    #> 5     4  33.9
    #> 6     6  17.8
    #> # ... with 9 more rows
```
…
