We will use the nycflights13 package to learn about relational data. nycflights13 contains four tibbles that are related to the `flights` table that you used in [data transformation]:

*   `airlines` lets you look up the full carrier name from its abbreviated
    code:

    
```r
    airlines
    #> # A tibble: 16 x 2
    #>   carrier name                    
    #>   <chr>   <chr>                   
    #> 1 9E      Endeavor Air Inc.       
    #> 2 AA      American Airlines Inc.  
    #> 3 AS      Alaska Airlines Inc.    
    #> 4 B6      JetBlue Airways         
    #> 5 DL      Delta Air Lines Inc.    
    #> 6 EV      ExpressJet Airlines Inc.
    #> # ... with 10 more rows
```
{Run code | terminal}(Rscript code/nycFlights.r)


*   `airports` gives information about each airport, identified by the `faa`
    airport code:

    
```r
    airports
    #> # A tibble: 1,458 x 8
    #>   faa   name                       lat   lon   alt    tz dst   tzone       
    #>   <chr> <chr>                    <dbl> <dbl> <int> <dbl> <chr> <chr>       
    #> 1 04G   Lansdowne Airport         41.1 -80.6  1044    -5 A     America/New~
    #> 2 06A   Moton Field Municipal A~  32.5 -85.7   264    -6 A     America/Chi~
    #> 3 06C   Schaumburg Regional       42.0 -88.1   801    -6 A     America/Chi~
    #> 4 06N   Randall Airport           41.4 -74.4   523    -5 A     America/New~
    #> 5 09J   Jekyll Island Airport     31.1 -81.4    11    -5 A     America/New~
    #> 6 0A9   Elizabethton Municipal ~  36.4 -82.2  1593    -5 A     America/New~
    #> # ... with 1,452 more rows
```

*   `planes` gives information about each plane, identified by its `tailnum`:

    
```r
    planes
    #> # A tibble: 3,322 x 9
    #>   tailnum  year type       manufacturer   model  engines seats speed engine
    #>   <chr>   <int> <chr>      <chr>          <chr>    <int> <int> <int> <chr> 
    #> 1 N10156   2004 Fixed win~ EMBRAER        EMB-1~       2    55    NA Turbo~
    #> 2 N102UW   1998 Fixed win~ AIRBUS INDUST~ A320-~       2   182    NA Turbo~
    #> 3 N103US   1999 Fixed win~ AIRBUS INDUST~ A320-~       2   182    NA Turbo~
    #> 4 N104UW   1999 Fixed win~ AIRBUS INDUST~ A320-~       2   182    NA Turbo~
    #> 5 N10575   2002 Fixed win~ EMBRAER        EMB-1~       2    55    NA Turbo~
    #> 6 N105UW   1999 Fixed win~ AIRBUS INDUST~ A320-~       2   182    NA Turbo~
    #> # ... with 3,316 more rows
```
…
